{
  "name": "",
  "css_prefix_text": "icon-",
  "css_use_suffix": false,
  "hinting": true,
  "units_per_em": 1000,
  "ascent": 850,
  "glyphs": [
    {
      "uid": "56a0672588820ab1a16363e5d07dd22e",
      "css": "user",
      "code": 59392,
      "src": "linecons"
    },
    {
      "uid": "47e9e56d2b5abe839bcf1e014d643dea",
      "css": "lock",
      "code": 59393,
      "src": "linecons"
    },
    {
      "uid": "2cfb3f2b46b34a1790aec0aa846297b6",
      "css": "menu",
      "code": 59394,
      "src": "entypo"
    },
    {
      "uid": "d10920db2e79c997c5e783279291970c",
      "css": "dots",
      "code": 59395,
      "src": "entypo"
    },
    {
      "uid": "efc6b1f799f17b526380fecfa3278039",
      "css": "cadeado",
      "code": 59396,
      "src": "custom_icons",
      "selected": true,
      "svg": {
        "path": "M342.1 820.9V1000H68.1C30.5 1000 0 972.5 0 938.6V444.8C0 412.1 28.3 385.5 63.9 383.5V278.2A278.5 278.5 0 0 1 342.1 0V92.7A185.7 185.7 0 0 0 156.7 278.2V383.3H342.1V562.4A67.6 67.6 0 0 0 316.5 692.6L291.1 820.9ZM613.3 383.5V278.2A278.5 278.5 0 0 0 335.2 0V92.7A185.7 185.7 0 0 1 520.7 278.2V383.3H335.2V562.4A67.6 67.6 0 0 1 360.9 692.6L386.2 820.9H335.2V1000H609.2C646.9 1000 677.3 972.5 677.3 938.6V444.8C677.3 412.1 649.1 385.5 613.3 383.5Z",
        "width": 677
      },
      "search": [
        "cadeado"
      ]
    },
    {
      "uid": "fde96878cc0c04c64ed37dee02b16022",
      "css": "celular",
      "code": 59397,
      "src": "custom_icons",
      "selected": true,
      "svg": {
        "path": "M549.5 0H90.5A90.7 90.7 0 0 0 0 90.5V909.5A90.7 90.7 0 0 0 90.5 1000H549.5A90.7 90.7 0 0 0 640 909.5V90.5A90.7 90.7 0 0 0 549.5 0ZM255.7 64.9H382.3A12.3 12.3 0 0 1 395.3 76.5 12.3 12.3 0 0 1 382.3 88H255.7A12.3 12.3 0 0 1 242.7 76.5 12.3 12.3 0 0 1 255.7 64.9ZM319.1 953.9A30.5 30.5 0 1 1 349.7 923.3 30.5 30.5 0 0 1 319.1 953.9ZM554.5 854.3H83.9V145.7H554.5Z",
        "width": 640
      },
      "search": [
        "celular"
      ]
    },
    {
      "uid": "d2e2d4e56c03c692d049cf0cec990a1b",
      "css": "eletro",
      "code": 59398,
      "src": "custom_icons",
      "selected": true,
      "svg": {
        "path": "M1433 0H89.8A89.9 89.9 0 0 0 0 89.8V910.2A89.9 89.9 0 0 0 89.8 1000H1433A89.9 89.9 0 0 0 1522.8 910.2V89.8A89.9 89.9 0 0 0 1433 0ZM1437.8 89.8V910.2A4.8 4.8 0 0 1 1433 914.9H89.8A4.8 4.8 0 0 1 85.1 910.2V89.8A4.8 4.8 0 0 1 89.8 85.1H1433A4.8 4.8 0 0 1 1437.7 89.8ZM1054.7 154.7H245.9A89.9 89.9 0 0 0 156 244.6V755.4A89.9 89.9 0 0 0 245.9 845.3H1054.6A89.9 89.9 0 0 0 1144.5 755.4V244.7A89.9 89.9 0 0 0 1054.6 154.7ZM1059.5 244.6V755.4A4.8 4.8 0 0 1 1054.7 760.2H245.9A4.8 4.8 0 0 1 241.1 755.4V244.7A4.8 4.8 0 0 1 245.9 239.9H1054.6A4.8 4.8 0 0 1 1059.4 244.7ZM1286.5 154.7A108.7 108.7 0 1 0 1395.1 264 108.9 108.9 0 0 0 1286.4 154.7ZM1309.6 264A23.7 23.7 0 1 1 1286 240.3 23.7 23.7 0 0 1 1309.6 264ZM1286 391.7A108.7 108.7 0 1 0 1394.7 500.4 108.9 108.9 0 0 0 1286.4 391.3ZM1309.6 500A23.7 23.7 0 1 1 1286 476.3 23.7 23.7 0 0 1 1309.6 500Z",
        "width": 1523
      },
      "search": [
        "eletro"
      ]
    },
    {
      "uid": "009b716853b198ba7c35541f27fd46d9",
      "css": "games",
      "code": 59399,
      "src": "custom_icons",
      "selected": true,
      "svg": {
        "path": "M1364.6 589.8C1328 365.3 1288.4 262.3 1215 133.9 1192.4 94.5 1126.1-3.6 1021.9 0.1 910.3 4.1 898 64.1 814.7 79.8 778.6 86.7 717.4 86.2 691.5 86H683.1C657.2 86 596 86.7 559.9 79.8 476.5 64.1 464.2 4.1 352.6 0 248.4-3.7 182.1 94.5 159.5 133.9 86.2 262.2 46.6 365.3 9.9 589.8-18.3 763.3 17.2 943.4 77.7 980.5 149.6 1024.6 234.9 990.7 293 916.3 334.9 862.8 405.2 791.3 472.3 760.6 537 732 639.1 729.5 687.3 729.3S837.5 731.9 902.3 761.2C969.4 791.5 1039.8 863.1 1081.6 917 1139.7 991 1224.9 1024.7 1296.8 981.1 1357.3 943.4 1392.8 763.3 1364.6 589.8ZM482.8 400.5A51.7 51.7 0 0 1 430.7 452.3H378.3V505.1A51.7 51.7 0 0 1 326.6 556.9H319.1A51.8 51.8 0 0 1 267.3 505.1V452.3H214.6A51.7 51.7 0 0 1 162.8 400.6V393.1A51.7 51.7 0 0 1 214.6 341.4H267.4V288.6A51.8 51.8 0 0 1 319.2 236.8H326.7A51.7 51.7 0 0 1 378.4 288.6V341.3H430.7A51.7 51.7 0 0 1 482.5 393ZM687.3 664.5A80.9 80.9 0 1 1 768.2 583.6 80.9 80.9 0 0 1 687.3 664.5ZM1051.7 236.8A55.5 55.5 0 1 1 996.2 292.3 55.5 55.5 0 0 1 1051.7 236.9ZM947.2 452.2A55.4 55.4 0 1 1 1002.7 396.8 55.5 55.5 0 0 1 947.2 452.3ZM1051.7 556.8A55.5 55.5 0 1 1 1107.2 501.2 55.5 55.5 0 0 1 1051.7 556.8ZM1156.1 452.2A55.4 55.4 0 1 1 1211.6 396.8 55.5 55.5 0 0 1 1156.2 452.3Z",
        "width": 1375
      },
      "search": [
        "games"
      ]
    },
    {
      "uid": "d9e9fc39cf6352495d93597c66d14ee3",
      "css": "informatica",
      "code": 59400,
      "src": "custom_icons",
      "selected": true,
      "svg": {
        "path": "M1567.3 832.6H1444.8V43.3A43.3 43.3 0 0 0 1401.5 0H223.2A43.3 43.3 0 0 0 179.9 43.3V832.6H57.3A57.3 57.3 0 0 0 0 889.9V942.3A57.3 57.3 0 0 0 57.3 999.6H1567.3A57.3 57.3 0 0 0 1624.6 942.3V889.9A57.3 57.3 0 0 0 1567.3 832.6ZM1059.1 919.2A21.7 21.7 0 0 1 1037.5 940.9H587.2A21.7 21.7 0 0 1 565.6 919.2V898.9A21.7 21.7 0 0 1 566.3 893.6H1058.5A21.7 21.7 0 0 1 1059.2 898.9ZM1312.5 939.7A18.2 18.2 0 1 1 1330.7 921.5 18.2 18.2 0 0 1 1312.5 939.6ZM1333.2 800.6H291.5V103.5A2.3 2.3 0 0 1 293.7 101.7H1330.9A2.3 2.3 0 0 1 1333.2 103.5ZM1397.2 939.6A18.2 18.2 0 1 1 1415.4 921.4 18.2 18.2 0 0 1 1397.2 939.6ZM1481.3 939.6A18.2 18.2 0 1 1 1499.5 921.4 18.2 18.2 0 0 1 1480.9 939.6Z",
        "width": 1625
      },
      "search": [
        "informatica"
      ]
    },
    {
      "uid": "0de7e19a29d7bd6dfc10ea0a5abfcced",
      "css": "livros",
      "code": 59401,
      "src": "custom_icons",
      "selected": true,
      "svg": {
        "path": "M1111.1 111.1H1055.6V55.5C1055.5 22.6 1034.5 0 1000 0H888.9C777.8 0 681.7 21.6 583.3 111.1 485 21.6 388.9 0 277.7 0H166.7C132.2 0 111.1 22.6 111.1 55.5V111.1H55.5A55.5 55.5 0 0 0 0 166.7V888.9A55.5 55.5 0 0 0 55.5 944.5H500A55.5 55.5 0 0 0 555.6 1000H611.1A55.5 55.5 0 0 0 666.6 944.5H1111.1A55.5 55.5 0 0 0 1166.6 888.9V166.7A55.5 55.5 0 0 0 1111.1 111.1ZM55.5 833.3V166.7H111.1V722.3C111.1 755.2 131.9 777.8 166.6 777.8H277.7C333.3 777.8 398 784.5 465.1 833.3ZM555.6 833.3C457.3 743.9 388.9 722.3 277.7 722.3H166.7V55.6H277.7C444.4 55.6 494.2 110.9 555.5 166.8ZM611.1 833.3V166.7C672.4 110.8 722.3 55.5 888.9 55.5H1000V722.3H888.9C777.8 722.3 709.4 743.9 611.1 833.3ZM1111.1 833.3H701.6C768.7 784.5 833.4 777.8 888.9 777.8H1000.1C1034.8 777.8 1055.6 755.2 1055.6 722.3V166.7H1111.1Z",
        "width": 1167
      },
      "search": [
        "livros"
      ]
    },
    {
      "uid": "1aebe06110a633471cad516dec061680",
      "css": "oinc",
      "code": 59402,
      "src": "custom_icons",
      "selected": true,
      "svg": {
        "path": "M842 33.1C940.9 82.4 989.3 224.5 989.3 384.1 989.3 664.7 843.4 1000 572.1 1000 408.2 1000 333.6 861.2 324.2 688.5 102 683.1 0 548.8 0 419 0 297.2 90.4 180.5 254.3 180.5A140.3 140.3 0 0 1 335.8 202.8L288.2 280.7A120.8 120.8 0 0 0 218.1 261C123.6 260.6 70.2 335.8 70.2 419 70.2 518.4 147.2 629.5 322.8 634.9 328.5 349.1 491.2 0 713.6 0A128.3 128.3 0 0 1 825.8 56.1ZM409.2 627.6C642 578.3 779 302.6 779 148.6 779 86.9 756.7 44.8 710.1 44.8 546.2 44.8 419.9 366.1 409.2 627.6ZM576.6 955.4C779.8 955.4 908.8 620.5 908.8 350.1 908.8 236.5 886.5 133.5 836.2 72.6A238.6 238.6 0 0 1 858.7 180.9C858.7 369.8 699.3 644 409.6 684.1 413.7 835.4 463.1 955.4 576.6 955.4ZM1157.3 384.2C1126 524.6 1100.1 627.7 1100.1 701.2 1100.1 727.2 1109.9 731.7 1118 731.7 1141.3 731.7 1170.8 681.6 1210.2 578.6 1214.7 578.6 1235.3 584.9 1235.3 590.2V591.1C1195.9 693.2 1165.2 796.9 1091.1 796.9 1042.8 796.9 1026.7 752.2 1026.7 690.4 1026.7 590.9 1066.5 449.1 1080.6 384.1ZM1092.1 286C1092.1 253.7 1115.4 215.8 1154.6 215.8 1184.3 215.8 1196.7 237.3 1196.7 262.4 1196.7 294.7 1173.4 332.6 1134 332.6A42.1 42.1 0 0 1 1092.1 286.6ZM1183.4 791.2A688.6 688.6 0 0 1 1216.5 642.6C1234.5 541.4 1249.6 450.9 1260.5 383H1337.4L1327.5 442.9C1355.6 399.9 1391.9 372.7 1429.6 372.7 1460.8 372.7 1481.5 393.3 1481.5 436.3 1481.5 519.6 1423.2 626.2 1423.2 699.6 1423.2 725.5 1433.1 730 1441.2 730 1464.5 730 1494.1 679.9 1533.4 576.9 1538.7 576.9 1558.5 584.1 1558.5 589.4 1519.1 691.6 1478.8 795.3 1405.4 795.3 1374.1 795.3 1344.5 770.3 1344.5 715.5 1344.5 618.9 1402.8 519.1 1402.8 455 1402.8 445.1 1398.3 437 1388.7 437 1366.4 437 1327 479.1 1297.5 605.4L1261.3 792.3ZM1693 557.5A213.9 213.9 0 0 0 1722.6 460.8C1722.6 442 1717.2 429.6 1704.6 429.6 1658 429.6 1617.7 536.1 1617.7 621.1 1617.7 677.2 1635.6 724.1 1681.3 724.1 1724.2 724.1 1772.5 675.7 1812 577.3 1817.3 577.3 1837.1 584.5 1837.1 589.8 1810.1 661.4 1741.2 800.3 1646.4 800.3 1576.2 800.3 1546 728.7 1546 643.6 1546 521.8 1608.8 374.1 1708.1 374.1 1759.2 374.1 1779.8 415.4 1779.8 467.2A299.3 299.3 0 0 1 1750.4 589.4ZM1842.7 754C1842.7 721.7 1866 683.8 1905.4 683.8 1934.9 683.8 1947.5 705.3 1947.5 730.4 1947.5 762.7 1924.2 800.6 1884.8 800.6A42.1 42.1 0 0 1 1842.7 755.7ZM2105 160.3A3393.3 3393.3 0 0 0 1945.6 640.2L1895.5 631.5A4370.9 4370.9 0 0 1 2022.5 138.2Z",
        "width": 2105
      },
      "search": [
        "oinc"
      ]
    },
    {
      "uid": "b3b7fcf529ae58a7bc8cabedc014d167",
      "css": "relogio",
      "code": 59403,
      "src": "custom_icons",
      "selected": true,
      "svg": {
        "path": "M500 1000A500 500 0 1 1 1000 500 500.5 500.5 0 0 1 500 1000ZM500 40A460 460 0 1 0 960 500 460 460 0 0 0 500 40ZM516.9 61.5H483.1V157.4H516.9ZM61.8 483.1V516.9H157.5V483.1ZM842.9 483.1V516.9H938.5V483.1ZM516.9 844.8H483.1V940.5H516.9ZM720 340.7A26.7 26.7 0 0 0 720 303.1L719.6 302.7A26.7 26.7 0 0 0 682 302.7L520 464.9 519.6 465.4A57.6 57.6 0 0 0 478.3 466.3L255.3 243.3A26.7 26.7 0 0 0 217.7 243.3L217.3 243.7A26.7 26.7 0 0 0 217.3 281.3L443.3 507.3A58.2 58.2 0 1 0 556 504.5C556.6 503.9 557.3 503.5 557.9 502.9Z",
        "width": 1000
      },
      "search": [
        "relogio"
      ]
    },
    {
      "uid": "e0e68090a1929a03efddb6b23bc369ac",
      "css": "tablet",
      "code": 59404,
      "src": "custom_icons",
      "selected": true,
      "svg": {
        "path": "M1421.2 0H141.5A141.8 141.8 0 0 0 0 141.5V858.6A141.8 141.8 0 0 0 141.5 1000.1H1421.2A141.8 141.8 0 0 0 1562.7 858.6V141.5A141.8 141.8 0 0 0 1421.2 0ZM137.8 750.7A19.3 19.3 0 0 1 119.9 770.9 19.3 19.3 0 0 1 101.9 750.7V653.4A19.3 19.3 0 0 1 119.9 633.2 19.3 19.3 0 0 1 137.9 653.4ZM137.8 548.7A19.3 19.3 0 0 1 119.8 568.9 19.3 19.3 0 0 1 101.8 548.7V451.3A19.3 19.3 0 0 1 119.8 431.1 19.3 19.3 0 0 1 137.8 451.3ZM137.8 346.7A19.3 19.3 0 0 1 119.8 366.9 19.3 19.3 0 0 1 101.8 346.7V249.3A19.3 19.3 0 0 1 119.9 229.2 19.3 19.3 0 0 1 137.9 249.4ZM1334.9 867.6H227.7V132.3H1334.9ZM1461.2 750.6A18.1 18.1 0 1 1 1425.3 750.6V653.4A18.1 18.1 0 1 1 1461.2 653.4ZM1461.2 548.6A18.1 18.1 0 1 1 1425.3 548.6V451.3A18.1 18.1 0 1 1 1461.2 451.3ZM1461.2 346.6A18.1 18.1 0 1 1 1425.3 346.6V249.3A18.1 18.1 0 1 1 1461.2 249.3Z",
        "width": 1563
      },
      "search": [
        "tablet"
      ]
    },
    {
      "uid": "bb67458abba073add58e331f3a5491b3",
      "css": "telefone",
      "code": 59405,
      "src": "custom_icons",
      "selected": true,
      "svg": {
        "path": "M192.3 3.8A35.8 35.8 0 0 1 215.9 0.9 35.1 35.1 0 0 1 230.5 9.3 165.2 165.2 0 0 1 244.6 25.7C266.1 66.2 288.8 115.5 312 170.4Q322.1 194.5 332.4 219.9C342 243.7 336.7 266.3 319.1 275.7 293.8 289.1 284.2 293.3 261.7 304.4L166.7 86.7 140.9 27.6A389.5 389.5 0 0 1 192.3 3.8ZM820 923.8L558.2 737.1A45.5 45.5 0 0 1 546.8 745.1 35.1 35.1 0 0 1 510.6 744.5C374.7 661.3 279 524.1 200 370.8 191.1 353.7 196.8 336.8 202.4 332.5A81.9 81.9 0 0 1 225.5 320.3L108.8 53.3 108.3 52.1 107.6 52.7C76.5 75.7 48.9 95.1 27.6 128 12 152.7-4.2 170 1 203.7 15 296.3 60 502.3 213.3 692.9A891 891 0 0 0 410 870.9 1058 1058 0 0 0 535.9 943.6 833.7 833.7 0 0 0 677.3 998.8C698.9 1004.7 728.6 987.5 747.7 976.9A534.4 534.4 0 0 0 820 924.1ZM886.7 824.8C883.7 802.2 859.7 788.3 842.7 775.5 823.5 761.1 707.1 670.6 660.3 651.3 619.7 634.5 607 666.5 587 694.6 584.7 697.9 582.7 701.3 580.3 704.7L848.9 895.9C866 877.4 889.1 844.9 886.7 825.1Z",
        "width": 887
      },
      "search": [
        "telefone"
      ]
    },
    {
      "uid": "3424ff0072534037f745d8fdb968ff34",
      "css": "tv",
      "code": 59406,
      "src": "custom_icons",
      "selected": true,
      "svg": {
        "path": "M1388.5 0H45.4A47.8 47.8 0 0 0 0 49.4V819.6A47.8 47.8 0 0 0 45.4 869H669.2V920.7H244.3A78.4 78.4 0 0 0 165.9 999V999.8H1267.9V999A78.4 78.4 0 0 0 1189.6 920.7H764.7V869H1388.1A47.8 47.8 0 0 0 1433.9 819.6V49.4A47.8 47.8 0 0 0 1388.5 0ZM1332.3 854.2A21.4 21.4 0 1 1 1353.7 832.8 21.4 21.4 0 0 1 1332.3 854.2ZM1355.4 790.7H78.5V78.5H1355.4Z",
        "width": 1434
      },
      "search": [
        "tv"
      ]
    },
    {
      "uid": "9dd9e835aebe1060ba7190ad2b2ed951",
      "css": "search",
      "code": 59407,
      "src": "fontawesome"
    },
    {
      "uid": "8e04c98c8f5ca0a035776e3001ad2638",
      "css": "facebook",
      "code": 61594,
      "src": "fontawesome"
    },
    {
      "uid": "4c1ef492f1d2c39a2250ae457cee2a6e",
      "css": "instagram",
      "code": 61805,
      "src": "fontawesome"
    },
    {
      "uid": "627abcdb627cb1789e009c08e2678ef9",
      "css": "twitter",
      "code": 61593,
      "src": "fontawesome"
    },
    {
      "uid": "bf882b30900da12fca090d9796bc3030",
      "css": "mail",
      "code": 59408,
      "src": "fontawesome"
    },
    {
      "uid": "e0d15ef5945000f5f264acc35494002f",
      "css": "basket",
      "code": 59409,
      "src": "typicons"
    },
    {
      "uid": "46a329a146c64ef65ade75e6452975ef",
      "css": "config",
      "code": 59412,
      "src": "custom_icons",
      "selected": true,
      "svg": {
        "path": "M363 43.6L355.8 17.6C343.6 20.9 333.3 23.9 324.1 27.2 317.1 29.5 311 32.1 305.1 34.9 300.7 37.1 296.4 39.6 292.4 42.7 289.4 45 286.4 47.6 283.8 50.7 279.8 55.1 276.3 60.7 274.4 66.6 272.3 72.5 271.6 78.6 271.6 84.2 271.6 92.2 273 99.7 275.1 106.9L288.2 155.5 288.2 155.5 297.4 153.1 288 153.1C288 153.8 288 154.8 288.2 155.5L297.4 153.1 288 153.1H296.4L288.5 150.6C288.2 151.3 288 152.2 288 153.1H296.4L288.5 150.6 292.2 151.7 289.2 149.2C289.2 149.2 288.9 149.6 288.5 150.6L292.2 151.7 289.2 149.2 289.4 149.4 289.2 149.2 289.2 149.2 289.4 149.4 289.2 149.2 289.2 149.2 289.2 149.2C275.6 157.6 262.7 166.7 250.2 176.4 238.3 185.7 226.3 195.6 214.8 206.4L214.8 206.4 214.8 206.4 215.1 206.8 214.8 206.4 214.8 206.4 215.1 206.8 214.8 206.4 216.7 210.6V205.9C215.5 205.9 215.1 206.1 214.8 206.1L216.7 210.4V205.7 214.4L218.8 205.9C217.4 206.4 216.7 206.4 216 206.4V215.1L218.1 206.6 215.8 215.8 220.5 207.6C219.7 207.1 218.8 206.8 218.1 206.6L215.8 215.8 220.5 207.6C205.9 199.1 191.4 190.9 176.8 182.5 171.7 179.4 166.5 176.8 160.9 175 155.3 173.1 148.9 171.4 142.1 171.4 137.4 171.4 132.5 172.1 128 173.5 124.1 174.7 120.3 176.6 117 178.5 111.2 182 106.2 186.4 101.8 191.1 95.2 198.2 89.6 206.1 83.5 215.8 77.4 225.4 71.1 236.4 63.6 249.5 53.5 267.1 45.5 281.2 39.6 293.9 36.6 300.2 34.2 306.3 32.4 312.4 30.5 318.5 29.3 325 29.3 331.8 29.3 337.2 30.3 342.9 32.1 348.3 33.5 352.3 35.4 356.2 37.8 359.5 41.3 364.7 45.3 368.7 49.5 372.2 53.7 375.7 58.2 378.5 62.9 381.3L106.5 406.4 111.2 398.2 104.1 404.5C104.8 405.3 105.5 406 106.5 406.4L111.2 398.2 104.1 404.5 109.5 399.6 102.5 402C102.7 402.4 103.2 403.6 104.1 404.5L109.5 399.6 102.5 402 105.8 400.8 102.5 401.3C102.5 401.3 102.5 401.5 102.7 401.7L106 400.6 102.7 401 103.4 401 102.7 401 102.7 401 103.4 401 102.7 401 102.7 401.3 102.7 401.3C99 416.5 96.6 432 94.5 447 92.4 462.5 91 478.2 90.8 494.1V494.1L90.8 494.4 91.2 494.6 90.8 494.4 90.8 494.4 91.2 494.6 90.8 494.4 95 496 91.7 492.7C90.8 493.7 90.8 494.1 90.5 494.1L94.7 495.8 91.5 492.5 97.6 498.6 93.1 491.1C92.4 491.6 91.7 492 91.5 492.5L97.6 498.6 93.1 491.1 98 499.3 95.5 490.2C94.7 490.4 93.8 490.6 93.1 491.1L98 499.3 95.5 490.2 46.9 503.3C41 504.9 35.2 506.8 29.5 509.6 25.3 511.7 21.1 514.3 17.1 517.6 14.1 520.2 11.5 523.2 9.1 526.5 5.6 531.4 3 537.3 1.6 542.7 0.2 548.3-0.2 553.7-0.2 559.1-0.2 564.3 0.2 569.2 0.9 574.6 2.1 582.3 3.8 590.8 6.1 599.9 8.2 609.1 11 619.4 14.1 630.9 18.1 645.2 21.3 657.4 24.6 667.9 27.2 675.9 29.8 682.9 32.6 689.7 34.7 694.7 37.3 699.3 40.3 703.8 42.7 707.1 45.3 710.4 48.3 713.4 50.7 715.8 53.2 717.9 56.1 719.7 60.3 722.6 65.2 724.7 69.9 726.1 74.8 727.5 79.5 728 84.2 728 92.2 728 99.7 726.5 106.9 724.4L106.9 724.4 155.5 711.3 155.5 711.3 153.1 702.2V711.5C153.8 711.5 154.8 711.5 155.5 711.3L153.1 702.2V711.5 703.1L150.6 711.1C151.3 711.3 152.2 711.5 153.1 711.5V703.1L150.6 711.1 151.7 707.3 149.2 710.4C149.2 710.4 149.6 710.6 150.6 711.1L151.7 707.3 149.2 710.4 149.4 710.1 149.2 710.4 149.2 710.4 149.4 710.1 149.2 710.4 149.2 710.4C157.4 723.7 166.3 736.4 175.7 748.6L175.7 748.6C185 761 195.1 773 206.4 784.7L206.4 784.7 206.4 784.7 206.4 784.7 206.4 784.7V784.7L206.4 784.7 206.4 784.7 208.3 783.8 206.4 784.2C206.4 784.5 206.6 784.7 206.6 784.7L208.5 783.8 206.6 784.2 212.2 782.8H206.4C206.4 783.5 206.4 784 206.6 784.2L212.2 782.8H206.4 215.1L206.6 780.7C206.4 781.4 206.4 782.4 206.4 782.8H215.1L206.6 780.7 215.8 783.1 207.6 778.4C207.1 779.1 206.8 780 206.6 780.7L215.8 783.1 207.6 778.4C199.1 792.9 190.9 807.5 182.5 822 179.4 827.2 176.8 832.3 175 837.9 173.1 843.6 171.4 849.9 171.4 856.7 171.4 861.4 172.1 866.3 173.5 870.8 174.7 874.8 176.6 878.5 178.5 881.8 182 887.7 186.4 892.6 191.1 897 198.2 903.6 206.1 909.2 215.8 915.3 225.4 921.4 236.4 927.8 249.5 935.3 267.1 945.4 281.2 953.3 293.9 959.2 300.2 962.2 306.3 964.6 312.4 966.5 318.5 968.3 325 969.5 331.8 969.5 337.2 969.5 342.9 968.6 348.3 966.7 352.3 965.3 356.2 963.4 359.5 961.1 364.7 957.6 368.7 953.6 372.2 949.3 375.7 945.1 378.5 940.7 381.3 936L406.4 892.4 398.5 887.7 404.8 894.5C405.5 893.8 406.2 893.1 406.7 892.1L398.7 887.4 405 894.2 400.1 888.8 402.4 895.9C402.9 895.6 403.8 895.2 405 894.2L400.1 888.8 402.4 895.9 401.3 892.6 401.7 895.9C401.7 895.9 402 895.9 402.2 895.6L401 892.4 401.5 895.6 401.3 894.7V895.6L401.5 895.6 401.3 894.7V895.6L401.3 895.6 401.3 895.6C416.7 899.4 432.5 902 447.9 904.1L447.9 904.1C463.2 906 478.7 907.4 494.4 907.6L494.4 907.6 494.6 907.6 495.1 906.2 494.4 907.4 494.6 907.6 495.1 906.2 494.4 907.4 497.2 902 492.7 906C493.4 906.9 494.1 907.1 494.4 907.4L497.2 902 492.7 906 499.8 899.9 490.9 902.2C491.1 903.6 492 905 492.7 905.7L499.8 899.6 490.9 902 490.9 902 504 950.5C505.6 956.4 507.5 962.2 510.3 967.9 512.4 972.1 515 976.3 518.3 980.3 520.9 983.3 523.9 985.9 527.2 988.3 532.1 991.8 538 994.4 543.4 995.8 549 997.2 554.4 997.7 559.8 997.7 565 997.7 569.9 997.2 575.3 996.5 583 995.3 591.5 993.7 600.6 991.3 609.8 989.2 620.1 986.4 631.6 983.3 645.9 979.4 658.1 976.1 668.6 972.8 676.6 970.2 683.6 967.6 690.4 964.8 695.4 962.7 700 960.1 704.5 957.1 707.8 954.7 711.1 952.2 714.1 949.1 716.5 946.8 718.6 944.2 720.5 941.4 723.3 937.1 725.4 932.2 726.8 927.5 728.2 922.6 728.7 917.9 728.7 913.2 728.7 905.3 727.3 897.7 725.1 890.5L725.1 890.5 712 841.9 702.9 844.3 712.2 844.3C712.2 843.6 712.2 842.6 712 841.9L702.9 844.3 712.2 844.3H703.8L711.8 846.9C712 846.2 712.2 845.2 712.2 844.3H703.8L711.8 846.9 708 845.7 711.1 848.3C711.1 848.3 711.3 847.8 711.8 846.9L708 845.7 711.1 848.3 710.8 848 711.1 848.3 711.1 848.3 710.8 848 711.1 848.3 711.1 848.3 711.1 848.3C724.4 840.1 737.3 830.9 749.3 821.5 761.7 812.1 773.7 801.8 785.2 790.8L785.2 790.8 785.2 790.8 785.2 790.8 784.9 790.3 785.2 790.8 785.2 790.8 784.9 790.3 785.2 790.8 783.3 786.6 783.3 791.3C784.5 791.3 785.2 791 785.2 791L783.3 786.8 783.3 791.5V782.8L781.2 791.3C781.9 791.5 782.8 791.5 783.3 791.5V782.8L781.2 791.3 783.5 782.1 778.8 790.3C779.5 790.8 780.5 791 781.2 791.3L783.5 782.1 778.8 790.3 822.5 815.4C827.6 818.5 832.8 821.1 838.4 822.9 844 825 850.4 826.5 857.2 826.5 861.9 826.5 866.8 825.8 871.2 824.3 875.2 823.2 879 821.3 882.3 819.4 888.1 815.9 893.1 811.4 897.5 806.8 904.1 799.7 909.7 791.7 915.8 782.1 921.9 772.5 928.2 761.5 935.7 748.4 945.8 730.8 953.8 716.7 959.7 704 962.7 697.7 965.1 691.6 966.9 685.5 968.8 679.4 970 672.8 970 666 970 660.6 969 655 967.2 649.6 965.8 645.6 963.9 641.7 961.5 638.4 958 633.2 954 629.2 949.8 625.7 945.6 622.2 941.1 619.4 936.4 616.6 921.9 608.1 907.4 599.9 892.8 591.5L888.1 599.7 895.2 593.3C894.5 592.6 893.8 591.9 892.8 591.5L888.1 599.7 895.2 593.3 889.8 598.3 896.8 595.9C896.6 595.5 896.1 594.5 895.2 593.3L889.8 598.3 896.8 595.9 893.8 596.9 897 596.4C897 596.4 897 596.2 896.8 595.9L893.8 596.9 897 596.4 895.9 596.6 897 596.6 897 596.6 895.9 596.9 897 596.9 897 596.9H897L897 596.9 897 596.9H897L897 596.6C900.8 580.9 903.4 565.4 905.3 550 907.1 534.7 908.5 519.5 909 503.8L909 503.5 907.6 503 909 503.8 909.2 503.5 907.8 503 909.2 503.8 903.8 500.9 907.8 505.4C908.8 504.7 909 504 909.2 503.8L903.8 500.9 907.8 505.4 901.7 498.4 904.1 507.3C905.5 507 906.9 506.1 907.6 505.4L901.5 498.4 903.8 507.3 903.8 507.3 952.4 494.1C958.3 492.5 964.1 490.6 969.7 487.8 974 485.7 978.2 483.1 982.2 479.8 985.2 477.3 987.8 474.2 990.2 470.9 993.7 466 996.2 460.1 997.7 454.7 999.1 449.1 999.5 443.7 999.5 438.3 999.5 433.2 999.1 428.2 998.4 422.8 997.2 415.1 995.5 406.7 993.2 397.5 991.1 388.4 988.3 378 985.2 366.6 981.2 352.3 978 340.1 974.7 329.5 972.1 321.5 969.5 314.5 966.7 307.7 964.6 302.8 962 298.1 959 293.6 956.6 290.3 954 287.1 951 284 948.6 281.7 946.1 279.5 943.2 277.7 939 274.9 934.1 272.7 929.4 271.3 924.5 269.9 919.8 269.5 915.1 269.5 907.1 269.5 899.6 270.9 892.4 273L843.8 286.1 843.8 286.1 846.4 295.3V285.9C845.7 285.9 844.7 285.9 843.8 286.1L846.4 295.3V285.9 294.3L849 286.4C848.3 286.1 847.3 285.9 846.4 285.9V294.3L849 286.4 847.8 289.9 850.4 286.8C850.4 286.8 849.9 286.6 849 286.1L847.8 289.6 850.4 286.6 850.1 286.8 850.4 286.6 850.4 286.6 850.1 286.8 850.4 286.6 850.4 286.6 850.4 286.6C841.9 273 832.8 260.1 823.2 247.7 813.8 235.7 803.9 223.7 793.2 212.2L793.2 212.2 793.2 212.2 792.7 212.5 793.2 212.2 793.2 212.2 792.7 212.5 793.2 212.2 788.9 214.1H793.6C793.6 212.9 793.4 212.5 793.4 212.2L789.2 214.1H793.9 785.2L793.6 216.2C793.9 215.5 793.9 214.6 793.9 214.1H785.2L793.6 216.2 784.5 213.9 792.7 218.6C793.2 217.9 793.4 216.9 793.6 216.2L784.5 213.9 792.7 218.6 792.7 218.6 817.8 175C820.8 169.8 823.4 164.6 825.3 159 827.2 153.4 828.8 147 828.8 140.2 828.8 135.6 828.1 130.6 826.7 126.2 825.5 122.2 823.6 118.4 821.8 115.2 818.2 109.3 813.8 104.4 809.1 99.9 802.1 93.3 794.1 87.7 784.5 81.6 774.9 75.5 763.8 69.2 750.7 61.7 733.1 51.6 719 43.6 706.4 37.8 700 34.7 693.9 32.4 687.9 30.5 681.8 28.6 675.2 27.4 668.4 27.4 663 27.4 657.4 28.4 652 30.3 648 31.7 644 33.5 640.7 35.9 635.6 39.4 631.6 43.4 628 47.6 624.5 51.8 621.7 56.3 618.9 61 610.5 75.5 602.3 90.1 593.8 104.6L602 109.3 595.7 102.3C595 103 594.3 103.7 593.8 104.6L602 109.3 595.7 102.3 600.6 107.6 598.3 100.6C597.8 100.8 596.6 101.3 595.7 102.3L600.6 107.6 598.3 100.6 599.4 103.9 599 100.6C599 100.6 598.7 100.6 598.5 100.8L599.7 104.1 599.2 100.8 599.4 101.5V100.8L599.2 100.8 599.4 101.5V100.8L599.2 100.8C584 97.1 568.5 94.7 553.5 92.6 538 90.5 522.3 89.1 506.1 88.9L505.9 88.9 505.4 90.3 506.1 89.1 505.9 88.9 505.4 90.3 506.1 89.1 503.3 94.5 507.7 90.5C507 89.6 506.3 89.4 506.1 89.1L503.3 94.5 507.7 90.5 500.7 96.6 509.6 94.3C509.4 92.9 508.4 91.5 507.7 90.8L500.7 96.9 509.6 94.5 509.6 94.5 496.5 46C494.8 40.1 493 34.5 490.2 28.6 488 24.4 485.5 20.2 482.2 16.2 479.1 14.5 476.1 11.7 472.8 9.4 467.9 5.9 462 3.3 456.6 1.9 451 0.5 445.6 0 440.2 0 435 0 430.1 0.5 424.7 1.2 417 2.3 408.5 4 399.4 6.3 390.2 8.4 379.9 11.3 368.4 14.3 364.2 15.5 360.2 16.7 356 17.6L363 43.6 370.3 69.7C374.1 68.7 378 67.5 382.5 66.4 397.7 62.1 410.2 59.1 419.8 57 424.7 56.1 428.7 55.1 432.2 54.6 435.7 54.2 438.3 53.9 440.2 53.9 441.4 53.9 442.1 53.9 442.5 54.2L443 54.2 443 54.2 443 54.2 444.2 49.7 441.6 53.5C442.3 53.9 442.8 54.2 443 54.2L444.2 49.7 441.6 53.5 444.4 49.5 440.7 52.5C440.7 52.8 441.1 53 441.6 53.2L444.4 49.2 440.7 52.3 441.8 51.4 440.7 52.3 440.7 52.3 441.8 51.4 440.7 52.3 440.9 52.1 440.7 52.3 440.7 52.3 440.9 52.1 440.7 52.3C440.7 52.3 441.1 53 441.6 54.4 442.3 55.8 443 58.2 443.7 61L456.8 109.5 456.8 109.5C458.5 115.4 461.3 121 464.8 125.5 467.4 128.8 470.5 131.8 473.7 134.1 478.4 137.7 483.6 140 488.5 141.7 493.7 143.3 498.8 144.2 504 144.2 517.6 144.5 531.4 145.6 545.5 147.5 559.3 149.4 572.7 151.5 585.6 154.5 589.8 155.5 594 156 598.3 156 605.5 156 613 154.5 620.5 151 624.3 149.2 627.8 146.8 631.3 143.8 634.6 140.7 637.7 137 640 133 648.5 118.4 656.7 103.9 665.1 89.4 666.5 86.8 667.9 84.7 668.9 83.5 669.6 82.6 670 82.1 670.3 81.8L670.3 81.8 667.4 78.3 668.9 82.6C669.6 82.3 670.3 81.8 670.3 81.8L667.4 78.3 668.9 82.6 667 77.4 667.9 82.8C668.2 82.8 668.6 82.6 668.9 82.6L667 77.4 667.9 82.8 667.4 79.3 667.7 82.8 667.9 82.8 667.4 79.3 667.7 82.8 667.4 81.1 667.4 82.8 667.4 82.8 667.2 81.1 667.2 82.8 667.2 82.6 667.2 82.8 667.2 82.8 667.2 82.6 667.2 82.8C667.2 82.8 668.6 82.8 671.2 83.7 675.2 84.9 681.8 87.7 690.4 92.2 699.1 96.6 709.7 102.7 722.8 110 734.1 116.3 743.4 122 751.2 126.6 756.8 130.2 761.7 133.4 765.2 136 768.1 138.1 769.9 139.8 771.6 141.2 772.7 142.1 773.5 143.1 773.9 143.5 774.2 144 774.4 144.2 774.4 144.2L774.4 144.2 777.7 142.4 774.2 143.3C774.4 143.8 774.4 144.2 774.4 144.2L777.7 142.4 774.2 143.3 779.8 141.9 774.2 141.9C774.2 142.4 774.2 142.8 774.4 143.3L780 141.9 774.4 141.9H777.4L774.4 141.7 774.4 141.9H777.4L774.4 141.7 775.1 141.7 774.4 141.7 774.4 141.7 775.1 141.7 774.4 141.7C774.4 141.7 774.4 142.4 773.7 143.8 773.2 145.2 772 147.3 770.6 149.9L745.5 193.5 745.5 193.5C743.4 197 742 200.8 741.1 204.5 740.2 208.3 739.7 212 739.7 215.8 739.7 223.3 741.3 229.8 744.1 235.7 746.7 241.6 750.2 246.7 754.7 251.2 763.8 260.8 772.5 271.1 781 282.1 789.6 293.4 797.6 304.6 804.6 316.1 808.6 322.7 814 328.6 821.1 333 824.6 335.4 828.3 337.2 832.8 338.6 837 340.1 841.9 341 846.9 341 850.6 341 854.6 340.5 858.6 339.4L858.6 339.4 907.1 326.2C911.8 325 914.9 324.6 915.8 324.6L916 324.6 916 324.6 916.5 320.4 914.6 324.3C915.3 324.6 915.8 324.8 915.8 324.8L916.3 320.6 914.4 324.6 916.5 319.9 913.2 323.9C913.5 324.1 913.9 324.3 914.4 324.6L916.5 319.9 913.2 323.9 914.4 322.5 913.2 323.9 913.2 323.9 914.4 322.5 913.2 323.9 913.5 323.6 913.2 323.9 913.2 323.9 913.5 323.6 913.2 323.9C913.2 323.9 914.2 324.8 915.3 327.2 917.2 330.7 920 337.2 922.8 346.6 925.9 355.8 929.2 367.7 933.2 382.3 937.4 397.5 940.4 409.7 942.5 419.6 943.5 424.5 944.4 428.5 944.9 432 945.4 435.5 945.6 438.1 945.6 440 945.6 441.1 945.6 441.8 945.4 442.3L945.4 442.8 945.4 442.8 945.4 442.8 949.6 443.9 946.1 441.4C945.6 441.8 945.4 442.5 945.4 442.8L949.6 443.9 946.1 441.4 950 444.2 947 440.4C946.8 440.4 946.5 440.9 946.3 441.4L950.3 444.2 947.2 440.4 948.2 441.6 947.2 440.4 947.2 440.4 948.2 441.6 947.2 440.4 947.2 440.7 947.2 440.4 947.2 440.4 947.2 440.7 947.2 440.4C947.2 440.4 946.5 440.9 945.1 441.4 943.7 442.1 941.4 442.8 938.6 443.5L890 456.6 890 456.6C884.1 458.3 878.5 461.1 874.1 464.6 870.8 467.2 867.7 470.2 865.4 473.5 861.9 478.2 859.5 483.3 857.9 488.3 856.2 493.4 855.3 498.6 855.3 503.8 855.1 516.9 853.9 530.5 852 544.3 850.1 558.4 848 572 844.7 585.1 843.8 589.4 843.3 593.6 843.3 597.8 843.3 605.1 844.7 612.6 848.3 620.1 850.1 623.8 852.5 627.6 855.5 630.9 858.6 634.1 862.3 637.2 866.3 639.5 880.9 648 895.4 656.2 909.9 664.6 912.5 666 914.6 667.4 915.8 668.4 916.7 669.1 917.2 669.6 917.4 669.8L917.4 669.8 921 667 916.7 668.4C917 669.1 917.4 669.8 917.4 669.8L921 667 916.7 668.4 921.9 666.5 916.5 667.4C916.5 667.7 916.7 668.2 916.7 668.4L921.9 666.5 916.5 667.4 920 667 916.5 667.2 916.5 667.4 920 667 916.5 667.2 918.2 667 916.5 667 916.5 667 918.2 666.7 916.5 666.7 916.7 666.7H916.5L916.5 666.7 916.7 666.7H916.5C916.5 666.7 916.5 668.2 915.6 670.7 914.4 674.7 911.6 681.3 907.1 690 902.7 698.6 896.6 709.2 889.3 722.3 883 733.6 877.3 743 872.7 750.7 869.1 756.3 865.9 761.3 863.3 764.8 861.2 767.6 859.5 769.5 858.1 771.1 857.2 772.3 856.2 773 855.8 773.5 855.3 773.7 855.1 773.9 855.1 773.9L855.1 773.9 856.9 777.2 856 773.7C855.5 773.9 855.1 773.9 855.1 773.9L856.9 777.2 856 773.7 857.4 779.3V773.7C856.9 773.7 856.5 773.7 856 773.9L857.4 779.5V773.9 777L857.6 773.9 857.4 773.9V777L857.6 773.9 857.6 773.9C857.4 773.9 856.7 773.7 855.3 773.2 853.9 772.5 851.8 771.6 849.4 770.2L805.8 745.1C802.3 743 798.5 741.6 794.8 740.6 791 739.7 787.3 739.2 783.5 739.2 776 739.2 769.5 740.9 763.6 743.7 757.7 746.2 752.6 749.8 748.1 754.2L748.1 754.2C738.3 763.6 727.7 772.5 716.7 781 705.7 789.4 694.4 797.4 683.2 804.4L683.2 804.4C676.6 808.4 670.7 813.8 666.3 820.8 663.9 824.3 662.1 828.1 660.6 832.6 659.2 836.8 658.3 841.7 658.3 846.6 658.3 850.4 658.8 854.4 659.9 858.3L673.1 906.9 673.1 906.9C674.2 911.6 674.7 914.6 674.7 915.6L674.7 915.8 674.7 915.8 678.9 916.3 675 914.4C674.7 915.1 674.5 915.6 674.5 915.6L678.7 916 674.7 914.2 679.4 916.3 675.4 913C675.2 913.2 675 913.7 674.7 914.2L679.4 916.3 675.4 913 676.8 914.2 675.4 913 675.4 913 676.8 914.2 675.4 913 675.7 913.2 675.4 913 675.4 913 675.7 913.2 675.4 913C675.4 913 674.5 913.9 672.1 915.1 668.6 917 662.1 919.8 652.7 922.6 643.5 925.7 631.6 928.9 617 932.9 601.8 937.1 589.6 940.2 579.7 942.3 574.8 943.2 570.8 944.2 567.3 944.7 563.8 945.1 561.2 945.4 559.3 945.4 558.2 945.4 557.5 945.4 557 945.1L556.5 945.1 556.5 945.1 556.5 945.1 555.3 949.3 557.9 945.8C557.5 945.4 556.8 945.1 556.5 945.1L555.3 949.3 557.9 945.8 555.1 949.8 558.9 946.8C558.9 946.5 558.4 946.3 557.9 946.1L555.1 950 558.9 947 557.7 947.9 558.9 947 558.9 947 557.7 947.9 558.9 947 558.6 947.2 558.9 947.2 558.9 947.2 558.6 947.5 558.9 947.5C558.9 947.5 558.4 946.8 557.9 945.4 557.2 943.9 556.5 941.6 555.8 938.8L542.7 890.2 542.7 890.2C541 884.4 538.2 878.8 534.7 874.3 532.1 871 529.1 868 525.8 865.6 521.1 862.1 515.9 859.8 511 858.1 505.9 856.5 500.7 855.5 495.5 855.5L495.5 855.5C482.2 855.3 468.6 854.1 455 852.3L455 852.3C440.9 850.4 427.3 848 414.2 845L414.2 845C409.9 844 405.7 843.6 401.5 843.6 394.2 843.6 386.7 845 379.2 848.5 375.5 850.4 372 852.7 368.4 855.8 365.2 858.8 362.1 862.6 359.8 866.6L334.7 910.2C333.3 912.8 331.8 914.9 330.9 916 330.2 917 329.7 917.4 329.5 917.7L329.5 917.7 332.3 921.2 330.9 917C330.2 917.2 329.5 917.7 329.5 917.7L332.3 921.2 330.9 917 332.8 922.1 331.8 916.7C331.6 916.7 331.1 917 330.9 917L332.8 922.1 331.8 916.7 332.3 920.3 332.1 916.7 331.8 916.7 332.3 920.3 332.1 916.7 332.3 918.4 332.3 916.7 332.3 916.7 332.6 918.4 332.6 916.7 332.6 917V916.7L332.6 916.7 332.6 917V916.7C332.6 916.7 331.1 916.7 328.6 915.8 324.6 914.6 318 911.8 309.3 907.4 300.7 902.9 290.1 896.8 277 889.5 265.7 883.2 256.3 877.6 248.6 872.9 243 869.4 238 866.1 234.5 863.5 231.7 861.4 229.8 859.8 228.2 858.3 227 857.4 226.3 856.5 225.8 856 225.6 855.5 225.4 855.3 225.4 855.3L225.4 855.3 222.1 857.2 225.6 856.2C225.4 855.8 225.4 855.3 225.4 855.3L222.1 857.2 225.6 856.2 220 857.6 225.6 857.6C225.6 857.2 225.6 856.7 225.4 856.2L219.7 857.6 225.4 857.6H222.3L225.4 857.9 225.4 857.6H222.3L225.4 857.9 224.7 857.9 225.4 857.9 225.4 857.9 224.7 857.9 225.4 857.9C225.4 857.9 225.4 857.2 226.1 855.8 226.5 854.4 227.7 852.3 229.1 849.7 237.6 835.1 245.8 820.6 254.2 806.1 256.3 802.5 257.7 798.8 258.7 795 259.6 791.3 260.1 787.5 260.1 783.8 260.1 776.3 258.4 769.7 255.6 763.8 253 758 249.5 752.8 245.1 748.4 235.7 738.5 226.8 728 218.1 716.7L218.1 716.7C209.7 705.7 201.7 694.7 194.9 683.4 190.9 676.8 185.5 671 178.5 666.5 175 664.2 171.2 662.3 166.7 660.9 162.5 659.5 157.6 658.5 152.7 658.5 148.9 658.5 144.9 659 140.9 660.2L140.9 660.2 93.1 673.1 93.1 673.1C88.4 674.2 85.4 674.7 84.4 674.7L84.2 674.7 84.2 674.7 83.7 678.9 85.6 675C84.9 674.7 84.4 674.5 84.4 674.5L84 678.7 85.8 674.7 83.7 679.4 87 675.4C86.8 675.2 86.3 675 85.8 674.7L83.7 679.4 87 675.4 85.8 676.8 87 675.4 87 675.4 85.8 676.8 87 675.4 86.8 675.7 87 675.4 87 675.4 86.8 675.7 87 675.4C87 675.4 86.1 674.5 84.9 672.1 83 668.6 80.2 662.1 77.4 652.7 74.3 643.5 71.1 631.6 67.1 617 62.9 601.8 59.8 589.6 57.7 579.7 56.8 574.8 55.8 570.8 55.3 567.3 54.9 563.8 54.6 561.2 54.6 559.3 54.6 558.2 54.6 557.5 54.9 557L54.9 556.5 54.9 556.5 54.9 556.5 50.7 555.3 54.2 557.9C54.6 557.5 54.9 556.8 54.9 556.5L50.7 555.3 54.2 557.9 50.2 555.1 53.2 558.9C53.5 558.9 53.7 558.4 53.9 557.9L50 555.1 53 558.9 52.1 557.7 53 558.9 53 558.9 52.1 557.7 53 558.9 52.8 558.6 53 558.9 53 558.9 52.8 558.6 53 558.9C53 558.9 53.7 558.4 55.1 557.9 56.5 557.2 58.9 556.5 61.7 555.8L110.2 542.7C116.3 541 121.7 538.2 126.2 534.7 129.5 532.1 132.3 529.1 134.6 525.8 138.1 521.1 140.5 515.9 142.1 511 143.8 505.9 144.5 500.7 144.7 495.5V495.5C144.9 481.9 146.1 468.3 148 454.3 149.9 440.4 152 427.1 155 414.2L155 414.2C156 409.9 156.4 405.7 156.4 401.5 156.4 394.2 155 386.7 151.5 379.2 149.6 375.5 147.3 372 144.2 368.4 141.2 365.2 137.4 362.1 133.4 359.8L89.8 334.7C87.2 333.3 85.1 331.8 84 330.9 83 330.2 82.6 329.7 82.3 329.5L82.3 329.5 78.8 332.3 83 330.9C82.8 330.2 82.3 329.5 82.3 329.5L78.8 332.3 83 330.9 77.9 332.8 83.3 331.8C83.3 331.6 83 331.1 83 330.9L77.9 332.8 83.3 331.8 79.7 332.3 83.3 332.1 83.3 331.8 79.7 332.3 83.3 332.1 81.6 332.3 83.3 332.3 83.3 332.3 81.6 332.6 83.3 332.6 83 332.6 83.3 332.6V332.6L83 332.6 83.3 332.6C83.3 332.6 83.3 331.1 84.2 328.6 85.4 324.6 88.2 318 92.6 309.3 97.1 300.7 103.2 290.1 110.5 277 116.8 265.7 122.4 256.3 127.1 248.6 130.6 243 133.9 238 136.5 234.5 138.6 231.7 140.2 229.8 141.7 228.2 142.6 227 143.5 226.3 144 225.8 144.5 225.6 144.7 225.4 144.7 225.4L144.7 225.4 142.8 222.1 143.8 225.6C144.2 225.4 144.7 225.4 144.7 225.4L142.8 222.1 143.8 225.6 142.4 220 142.4 225.6C142.8 225.6 143.3 225.6 143.8 225.4L142.4 219.7 142.4 225.4V222.3L142.1 225.4 142.4 225.4V222.3L142.1 225.4 142.1 224.7 142.1 225.4 142.1 225.4 142.1 224.7 142.1 225.4C142.1 225.4 142.8 225.4 144.2 226.1 145.6 226.5 147.7 227.7 150.3 229.1 164.9 237.6 179.4 245.8 193.9 254.2 197.5 256.3 201.2 257.7 205 258.7 208.7 259.6 212.5 260.1 216.2 260.1 223.7 260.1 230.3 258.4 236.2 255.6 242 253 247.2 249.5 251.6 245.1 261.3 235.9 271.6 227.3 282.6 218.8 293.9 210.1 305.1 202.2 316.6 195.1L316.6 195.1C323.2 191.1 329 185.7 333.5 178.7 335.8 175.2 337.7 171.4 339.1 167 340.5 162.8 341.5 157.8 341.5 152.9 341.5 149.2 341 145.2 339.8 141.2L339.8 141.2 326.7 92.6C325.5 87.9 325 84.9 325 84 325 83.7 325 83.5 325 83.5L321.1 83 324.6 84.4C324.8 84 324.8 83.5 324.8 83.5L320.8 83 324.3 84.4 319.2 82.3 323.6 85.6C323.9 85.4 324.1 84.9 324.3 84.4L319.2 82.3 323.6 85.6 321.5 84 323.4 85.8 323.6 85.6 321.5 84 323.4 85.8 323.4 85.8 323.4 85.8 323.4 85.8 323.4 85.8 323.4 85.8C323.4 85.8 324.3 85.1 326.2 84 329 82.3 334.2 80 341.7 77.6 349 75 358.3 72.5 369.8 69.2L363 43.6ZM431.1 245.5L438.1 271.6C459 265.9 479.6 263.4 500.2 263.4 552.3 263.4 602.3 280.7 642.8 311.2 683.4 341.7 714.4 385.3 728.7 438.1 734.3 459 736.9 479.6 736.9 500.2 736.9 552.3 719.5 602.3 689 642.8 658.5 683.4 614.9 714.4 562.1 728.7 541.3 734.3 520.6 736.9 500 736.9 447.9 736.9 398 719.5 357.4 689 316.8 658.5 285.9 614.9 271.6 562.1 265.9 541.3 263.4 520.6 263.4 500 263.4 447.9 280.7 398 311.2 357.4 341.7 316.8 385.3 285.9 438.1 271.6L431.1 245.5 424 219.5C359.3 237.1 305.6 275.1 268.1 324.8 230.5 374.5 209.2 435.7 209.2 499.8 209.2 524.9 212.5 550.7 219.3 576 236.9 640.7 274.9 694.4 324.6 731.9 374.3 769.5 435.5 790.8 499.5 790.8 524.6 790.8 550.4 787.5 575.8 780.7 640.5 763.1 694.2 725.1 731.7 675.4 769.2 625.7 790.6 564.5 790.6 500.5 790.6 475.4 787.3 449.6 780.5 424.2 762.9 359.5 724.9 305.8 675.2 268.3 625.5 230.8 564.3 209.7 500.2 209.4 475.1 209.4 449.3 212.7 424 219.5L431.1 245.5Z",
        "width": 1000
      },
      "search": [
        "config"
      ]
    },
    {
      "uid": "aefa13390a150dd08d3d9bae44404e85",
      "css": "extrato",
      "code": 59414,
      "src": "custom_icons",
      "selected": true,
      "svg": {
        "path": "M363.5 878.6C363.5 887.1 361.9 894.8 358.7 902.2 354.2 913 346.5 922.3 336.7 928.7 327.1 935.3 315.5 939 303 939 294.5 939 286.9 937.4 279.4 934.3 268.6 929.7 259.3 922.1 252.9 912.2 246.3 902.7 242.6 891 242.6 878.6V121.4C242.6 104.7 239.1 88.8 233 74.2 223.8 52.5 208.4 33.9 189 20.9 169.9 7.7 146.3 0 121.4 0 104.7 0 88.5 3.4 74.2 9.5 52.5 18.8 33.9 34.2 20.9 53.6 7.7 72.9 0 96.2 0 121.4 0 129.4 3.2 137.3 9 142.9 14.6 148.5 22.5 151.9 30.5 151.9H151.6C168.6 151.9 182.1 138.4 182.1 121.4 182.1 104.5 168.6 90.9 151.6 90.9H30.5V121.4H61C61 112.9 62.6 105.2 65.7 97.8 70.3 87 77.9 77.7 87.8 71.3 97.3 64.7 109 61 121.4 61 129.9 61 137.6 62.6 145 65.7 155.9 70.3 165.2 77.9 171.5 87.8 178.2 97.3 181.9 109 181.9 121.4V878.8C181.9 895.5 185.3 911.5 191.4 926 200.7 947.8 216.1 966.3 235.4 979.3 254.8 992.3 278.4 1000 303.3 1000 320 1000 335.9 996.6 350.5 990.5 372.2 981.2 390.8 965.8 403.8 946.4 416.8 927.1 424.4 903.5 424.4 878.6 424.4 861.6 410.9 848.1 394 848.1 377.3 848.1 363.5 861.9 363.5 878.6L363.5 878.6ZM121.4 61L787.9 61C796.4 61 804.1 62.6 811.5 65.7 822.4 70.3 831.7 77.9 838 87.8 844.6 97.3 848.4 109 848.4 121.4V878.8C848.4 895.8 861.9 909.3 878.8 909.3 895.8 909.3 909.3 895.8 909.3 878.8H909.3V121.4C909.3 104.7 905.9 88.8 899.8 74.2 890.5 52.5 875.1 33.9 855.8 20.9 836.4 7.7 812.8 0 787.9 0H121.4M303 1000H878.6C895.3 1000 911.2 996.6 925.8 990.5 947.5 981.2 966.1 965.8 979.1 946.4 992 927.1 999.7 903.5 999.7 878.6 999.7 870.6 996.6 862.7 990.7 857.1 985.2 851.5 977.2 848.1 969.2 848.1H394C377 848.1 363.5 861.6 363.5 878.6 363.5 895.5 377 909.1 394 909.1L969.5 909.1V878.6H939C939 887.1 937.4 894.8 934.3 902.2 929.7 913 922.1 922.3 912.2 928.7 902.7 935.3 891 939 878.6 939H303C286.1 939 272.5 952.5 272.5 969.5 272.5 986.5 286.3 1000 303 1000L303 1000ZM526 389.7C533.1 384.7 542.4 382.3 554.1 382.3 577.4 382.3 595.7 387.6 608.2 398.5L625.9 413.6 670.5 340.7 642.1 330.6C622.5 319.7 604.5 312 573.2 307.5V250.5H510.6V309.7C463.7 316.3 473.2 326.6 460 341.2 443 359.8 434.5 382.3 434.5 408 434.5 451.5 469.5 488.6 538.2 517.8 555.4 524.9 584.3 539.8 584.3 557.8 584.3 566 581.4 571.8 574.8 576.9 566.8 583 555.4 586.2 540.8 586.2 515.9 586.2 495.2 579.3 477.7 565.2L459.4 550.6 420.5 620.4 420.5 631C440.6 646.6 463.7 657.2 479.3 662.2V704.4H573.2V658.5C604.5 651.4 620.1 640 634.1 624.1 651.6 604.2 664.4 581.4 664.4 556.2 664.4 529.7 658 507.2 641.8 488.9 626.7 472.2 603.7 456.8 569.2 441.4 518.3 418.9 518 404.8 518 404 518 397.7 520.7 393.4 526 389.7Z",
        "width": 1000
      },
      "search": [
        "extrato"
      ]
    },
    {
      "uid": "e22d81abeafedd6cf7ea319f8b645b4d",
      "css": "resgate",
      "code": 59413,
      "src": "custom_icons",
      "selected": true,
      "svg": {
        "path": "M338.1 590.7C338.1 591.1 338.1 603.1 381.4 622.4 410.7 635.2 430.4 648.5 443 662.6 456.7 677.9 462.1 697.2 462.1 719.7 462.1 740.8 451.3 760.4 436.5 777.3 424.6 790.7 411.3 800.4 384.8 806.5V845.4H305.2V809.2C292 804.9 272.4 796.1 255.3 782.6L255.3 773.7 288.6 714.5 304.1 726.9C319.2 738.8 336.7 744.7 357.6 744.7 370 744.7 379.6 742 386.4 736.8 392 732.5 394.5 727.4 394.5 720.6 394.5 705.3 370 692.7 355.4 686.7 297.1 661.9 267.5 630.7 267.5 593.6 267.5 571.8 274.4 552.9 289.1 537 300.3 524.8 292.2 515.8 332 510.2V460.1H385V508.7C411.6 512.5 426.8 519 443.5 528.2L467.5 536.7 429.3 598.6 414.3 585.7C403.7 576.8 388.2 572 368.4 572 358.5 572 350.6 574.1 344.6 578.3 340.1 581.7 338.1 585.1 338.1 590.7ZM716.8 733.2C716.8 778.8 705.8 844.7 652.5 900 592.3 962.7 494.3 994.4 360.5 994.4 227.7 994.4 130.4 962.7 70.1 900.4 17.3 846 5.6 780.4 5.6 734.8V734.5C5.6 679.3 37.5 598.1 104.7 493.6 149.2 424.4 195.3 363.2 218.5 334.2 210.2 327 205 316.5 205 305 205 289.7 214.2 276.2 227 270.2 219.2 257.4 209 245.7 200.9 236 197.6 232 194.2 228.1 191.5 224.8 152.2 174.9 141.4 125.6 159.1 78.7 172.6 43.2 211.1 5.6 256.2 5.6 257.6 5.6 258.7 5.6 260.1 5.6 290.2 7 313.1 25.4 333.3 41.4 342.1 48.3 350.2 54.8 358.5 59.8 380.3 72.8 408 79.1 443.2 79.1 449.5 79.1 456.1 78.9 463 78.4 466.6 78.2 471.1 77.8 475.8 77.3 484.8 76.4 494.9 75.3 505.3 75.3 552.3 75.3 565.3 99.6 567.8 120 570.7 143.2 559.7 164.1 549.8 180 541 194 531.4 207.5 521.9 220.5 510.2 236.7 499.2 252.2 489.5 268.4 503.9 273.8 514.5 288.2 514.5 304.6 514.5 316.3 509.1 327 500.6 334.2 504.4 339 508.4 343.7 512.2 348.6 544.6 390 570.5 425.3 594.1 459.9 597.4 464.8 600.8 469.8 604.2 474.7 654.3 547.8 716.6 638.6 717 729.8L716.8 733.2ZM261.4 258.9H454C454.7 258.9 455.6 259.6 456.3 258 467.7 236.7 481.7 220.9 495.4 202.1 504.4 189.5 513.8 176.4 522.1 163.4 529.3 152.2 537.2 137.3 535.6 124.3 534.7 117.8 533.6 107.7 504.8 107.7 496.3 107.7 486.9 108.6 478.5 109.5 473.6 109.9 468.6 110.4 464.4 110.6 457 111 449.8 111.3 442.8 111.3 401.4 111.3 368.4 103.4 341.4 87.2 331.3 81.1 321.9 73.5 312.7 66.1 294.7 51.7 277.8 38 258 37.1 227.5 35.7 198.7 62.5 188.6 89 175.3 125.2 184.3 162.1 216.7 203 218.9 205.9 221.8 207.5 225.2 211.5 236.7 225 251.7 242.5 261.4 258.9ZM476.7 300.1L476.7 300.1C476.1 296.7 473.1 294 469.5 294H245.7C241.9 294 238.5 297.1 238.5 301 237.6 301.6 236.9 302.5 236.9 304.1 236.9 307.3 239.6 308.2 242.3 308.2H245.9 469.8 477C479.7 308.2 482.4 307.3 482.4 304.1S479.4 300.1 476.7 300.1ZM684.6 733.2L684.6 730.3C684.2 648.9 625.1 562.4 577.4 492.9 574.1 487.8 570.5 482.6 567.3 477.6 544.2 443.7 518.8 408.4 486.9 367.7 479.9 358.7 472.5 349.5 466.2 341.4H252.4C174 432 33.9 633.9 34.6 733.4 36.4 818.6 81.4 962.5 359.6 962.5 484.2 962.5 575 933.9 628.9 878 675 830.1 684.6 772.8 684.6 733.2ZM716.6 730.1L722.2 730.1C722 683.3 705.8 637 683.7 593.2 661.7 549.6 633.4 508.2 608.5 471.8 605.1 466.8 601.5 461.7 598.3 457 574.7 422.3 548.7 386.8 516.5 345.5 512.7 340.5 508.7 335.6 504.8 330.9L500.6 334.5 504.2 338.7C513.8 330.6 520.1 318.3 520.1 304.8 520.1 295.3 517 286.6 512 279.4 506.9 272.2 499.9 266.6 491.6 263.4L489.5 268.6 494.5 271.5C503.7 255.6 514.7 240.3 526.4 224.1 535.9 211.1 545.5 197.6 554.5 183.4 559 176.2 563.7 167.9 567.5 158.5 571.4 149.2 573.8 138.9 573.8 127.9 573.8 125.2 573.6 122.5 573.4 119.8 572.7 114.2 571.4 108.3 568.7 102.7 564.8 94.2 558.3 85.6 547.8 79.8 537.4 73.9 523.5 70.4 505.3 70.4 494.7 70.4 484.4 71.5 475.4 72.4 470.7 72.8 466.4 73.3 462.8 73.5 456.1 73.9 449.5 74.2 443.5 74.2 426.2 74.2 410.9 72.6 397.2 69.5 383.7 66.3 371.8 61.6 361.4 55.5 353.6 50.8 345.5 44.5 336.9 37.5 326.8 29.4 315.8 20.7 303.4 13.5 290.9 6.5 276.7 1.1 260.5 0.4 259.2 0.4 257.8 0.4 256.5 0.4 244.3 0.4 232.9 2.9 222.1 7.2 205.9 13.7 191.7 24.3 180 36.4 168.4 48.8 159.6 62.9 154.2 76.9 148.3 91.9 145.7 107.4 145.7 123.2 145.7 140.5 149.2 158 156.2 175.8 163.2 193.3 173.7 210.8 187.7 228.6 190.4 232.2 193.8 236 197.1 240.1 205.2 249.5 215.1 261.2 222.5 273.3L227.2 270.4 224.8 265.2C217.4 268.8 211.1 274.4 206.6 281.2 202.1 288.2 199.4 296.2 199.4 305 199.4 318.3 205.4 330.4 214.9 338.5L218.5 334.2 214 330.6C190.6 359.9 144.5 421 99.8 490.7 66.1 543.3 41.1 589.8 24.5 630.5 8.3 671.2 0 705.8 0 734.5V734.8C0 757.9 2.9 786.2 12.6 815.9 22.3 845.6 38.9 876.4 65.6 904.2 96.4 936.2 136.9 960.2 185.9 976.2 235.1 992.1 293.1 1000 360.1 1000 427.3 1000 485.7 991.9 535.2 975.9 584.6 960 625.1 935.9 656.1 903.8 683.5 875.5 699.9 844.2 709.6 814.6 719.3 784.7 722 756.3 722 733.2V733L721.7 729.8 716.6 730.1 722.2 730.1 716.6 730.1 710.9 730.5 711.2 733.6 716.8 733.2H711.2C711.2 755.5 708.5 782.9 699.3 811.2 690 839.5 674.3 869.2 648.5 896.2 619 926.7 580.4 949.9 532.3 965.4 484.2 980.9 426.8 988.8 360.5 988.8 294.4 988.8 237.6 980.9 189.7 965.4 142.1 949.9 103.4 926.9 73.9 896.4 48.3 869.9 32.6 840.6 23.4 812.5 14.2 784.2 11.2 757 11.2 734.8V734.5C11.2 708 18.9 674.5 35.3 634.7 51.5 595 76.2 548.9 109.7 496.7 154.2 427.7 200 366.6 223.2 337.8L226.6 333.6 222.5 330C215.6 323.9 210.8 314.7 210.8 304.8 210.8 298.3 212.9 292.2 216.2 287 219.6 281.9 224.3 277.6 229.7 275.1L235.3 272.4 232 267C223.9 253.8 213.5 241.9 205.4 232.2 202.1 228.1 198.7 224.3 196.2 221.2 182.7 204.3 172.8 187.7 166.3 171.3 159.8 154.9 156.4 138.7 156.4 122.9 156.4 108.8 159.1 94.6 164.3 80.7 170.6 64.1 183.2 46.3 199.4 33.3 207.5 26.7 216.5 21.1 226.1 17.3 235.6 13.5 245.7 11.2 256 11.2 257.1 11.2 258.3 11.2 259.6 11.2 273.5 11.9 285.9 16.4 297.4 22.9 308.8 29.4 319.4 37.8 329.5 45.9 338.3 52.8 346.6 59.6 355.4 64.7 366.8 71.7 379.9 76.6 394.2 80 408.9 83.4 425 85 443 85 449.3 85 456.1 84.7 463 84.3 466.8 84.1 471.3 83.6 476.1 83.2 485.1 82.3 494.9 81.4 504.8 81.4 516.1 81.4 525.1 82.7 532.3 85.2 543 88.8 549.8 94.2 554.1 100.5 558.6 106.8 560.6 114 561.5 120.9 561.7 123.2 561.9 125.4 561.9 127.7 561.9 136.9 559.7 145.7 556.3 154.2 552.9 162.5 548.4 170.4 544.2 177.3 535.6 191.1 526 204.5 516.5 217.6 504.8 233.8 493.6 249.3 483.9 265.9L480.6 271.7 486.9 274C492.9 276.2 498.3 280.5 502.1 285.9 506 291.3 508.2 297.8 508.2 304.8 508.2 314.7 503.5 323.9 496.3 330.2L492 333.8 495.6 338.1C499.4 342.8 503.3 347.5 507.1 352.4 539.2 393.8 565.1 428.9 588.7 463.3 592 468.2 595.4 473.1 598.8 478.1 623.7 514.5 651.8 555.4 673.4 598.1 695 640.8 710.5 685.5 710.7 729.8L710.7 730.1 710.7 730.3 716.6 730.1ZM225.2 211.5L229.5 207.9C227.5 205.7 225.7 203.9 224.1 202.7 222.5 201.4 221.6 200.7 220.9 199.6 209.9 185.4 201.6 172.2 196.2 159.1 190.8 146.3 188.1 134 188.1 121.8 188.1 111.5 190.2 101.4 194 91 198.5 79.1 207.2 66.8 218.5 57.8 224.1 53.3 230.2 49.4 236.5 46.8 242.8 44.1 249.3 42.7 256 42.7 256.7 42.7 257.4 42.7 258 42.7 266.8 43.2 274.9 46.3 283.4 51.5 292 56.6 300.5 63.4 309.5 70.6 318.5 77.8 328.2 85.6 338.7 92.2 366.6 109 401 117.1 442.8 117.1 449.8 117.1 457.2 116.9 464.6 116.4 469.1 116.2 474 115.8 479 115.3 487.3 114.4 496.3 113.5 504.6 113.5 511.4 113.5 516.5 114.2 520.1 115.1 522.8 115.8 524.6 116.7 525.7 117.3 526.6 118 527.3 118.5 527.8 118.9 528.4 119.8 528.9 120.5 529.1 121.6 529.3 122.5 529.6 123.8 529.8 125.2 529.8 126.1 530 127 530 127.9 530 132.8 528.4 138.5 526 144.1 523.5 149.7 520.3 155.3 517.2 160.5 509.1 173.3 499.7 186.3 490.7 198.9 483.9 208.1 477 216.9 470.2 225.9 463.5 234.9 457 244.5 451.1 255.6L454.3 257.1 452.2 254.4C451.6 254.9 451.1 255.6 451.1 255.6L454.3 257.1 452.2 254.4 454.9 258.3 453.6 253.8C453.1 254 452.7 254.2 452.2 254.4L454.9 258.3 453.6 253.8 454.9 258.3V253.8C454.5 253.8 454 253.8 453.6 254L454.9 258.5V254 258L455.6 254C455.4 254 455.2 254 454.9 254V258L455.6 254 455.2 256.7 455.6 254 455.6 254 455.2 256.7 455.6 254 455.6 254.4 455.6 254 455.6 254 455.6 254.4 455.6 254C455.6 254 454.9 253.8 453.8 253.8H261.2V259.4L266.1 256.5C261 247.9 254.7 239.2 248.1 231.1 241.6 222.7 234.9 215.1 229.3 208.4L225.2 211.5 220.9 215.1C226.6 221.8 233.3 229.5 239.6 237.6 245.9 245.7 252 254 256.7 261.9L258.3 264.6H454V260.5L453.4 264.6C453.6 264.6 453.8 264.6 454 264.6V260.5L453.4 264.6 453.8 262.1 453.4 264.6 453.4 264.6 453.8 262.1 453.4 264.6 453.4 264.6C453.4 264.6 454 264.8 455.2 264.8 455.6 264.8 456.3 264.8 457 264.6 458.1 264.3 459 263.7 459.7 263 460.3 262.3 460.8 261.6 461.2 261 466.6 250.6 472.9 241.6 479.4 232.6 486 223.9 492.9 215.1 499.9 205.4 508.9 192.9 518.5 179.8 526.9 166.3 530.2 161.2 533.8 154.9 536.5 148.6 539.2 142.1 541.5 135.1 541.5 127.9 541.5 126.5 541.5 125.2 541.2 123.6 541 122 540.8 119.6 539.9 117.1 539.2 115.1 538.1 113.1 536.3 111 533.6 108.1 530 105.9 524.8 104.3 519.9 102.7 513.4 102 505.1 102 496.1 102 486.6 102.9 478.3 103.8 473.4 104.3 468.6 104.7 464.4 105 457 105.4 450 105.6 443.2 105.6 402.8 105.6 370.6 98 344.8 82.5 335.1 76.6 325.9 69.2 316.7 61.8 307.7 54.6 298.9 47.4 289.5 41.8 280.1 36.2 269.9 32.1 258.9 31.5 258 31.5 257.1 31.5 256.2 31.5 247.9 31.5 240.1 33.3 232.4 36.4 221.2 41.1 211.1 48.6 202.7 57.5 194.4 66.5 187.9 76.6 183.9 87.2 179.6 98.7 177.3 110.4 177.3 122 177.3 135.8 180.3 149.7 186.3 163.6 192.2 177.8 200.9 192 212.6 206.6 214.2 208.6 215.8 209.9 217.4 211.3 218.7 212.4 220 213.5 221.4 215.3L225.2 211.5ZM482.1 304.3H476.5 478.1L476.7 303.7C476.5 304.1 476.5 304.3 476.5 304.3H478.1L476.7 303.7 478.8 304.8 477.4 303C477.2 303.2 477 303.4 477 303.7L479 304.8 477.6 303 478.5 304.1 477.9 302.8 477.6 303 478.5 304.1 477.9 302.8 478.1 303.2 477.9 302.8 477.9 302.8 478.1 303.2 477.9 302.8 477.9 302.8C477.9 302.8 477.4 302.8 477.2 302.8H470 246.1 242.5C242.3 302.8 241.9 302.8 241.9 302.8L241.9 302.8 241.6 303 241.9 302.8 241.9 302.8 241.6 303 241.9 302.8 241 304.6 242.5 303.4C242.3 303 241.9 302.8 241.9 302.8L241 304.6 242.5 303.4 240.7 304.6 242.8 303.9 242.5 303.2 240.7 304.3 242.8 303.7 241.6 303.9H242.8L242.8 303.7 241.6 303.9H242.8 241.2L242.5 304.6C242.8 304.1 242.8 303.9 242.8 303.9H241.2L242.5 304.6 240.7 303.7 241.9 305.5C242.1 305.5 242.3 305 242.5 304.8L240.7 303.9 241.9 305.7 244.3 304.1 244.3 301.2C244.3 300.7 244.5 300.3 244.8 300.1 245 299.8 245.4 299.6 245.9 299.6H469.8C470.2 299.6 470.4 299.8 470.7 300.1 470.9 300.3 471.1 300.7 471.1 301L471.8 305.7H476.7C477 305.7 477.4 305.7 477.4 305.7L477.4 305.7 477.6 305.5 477.4 305.7 477.4 305.7 477.6 305.5 477.4 305.7 478.3 303.9 476.7 305C477 305.5 477.4 305.7 477.4 305.7L478.3 303.9 476.7 305 478.5 303.9 476.5 304.6 476.7 305.2 478.5 304.1 476.5 304.8 477.6 304.6 476.5 304.6 476.5 304.8 477.6 304.6 476.5 304.6H482.1 487.8C487.8 303 487.3 301.4 486.6 299.8 486 298.7 485.3 297.8 484.4 297.1 483 296 481.7 295.6 480.3 295.1 479 294.9 477.9 294.7 476.7 294.7H476.7V300.3L482.4 299.4C481.9 296.2 480.3 293.5 478.1 291.5 475.8 289.5 472.9 288.4 469.8 288.4H245.9C242.3 288.4 239.2 289.7 236.9 292 234.7 294.2 233.1 297.4 233.1 301L238.7 301 235.6 296.2C234.4 296.9 233.3 298 232.4 299.6 231.7 301 231.3 302.8 231.3 304.3 231.3 305.9 231.7 307.5 232.4 309.1 233.1 310.2 233.8 311.1 234.7 311.8 236 312.9 237.4 313.3 238.7 313.8 240.1 314 241.2 314.2 242.3 314.2H245.9 469.8 477C477.9 314.2 479 314.2 480.1 314 481.7 313.6 483.7 312.9 485.3 311.3 486.2 310.4 486.9 309.5 487.3 308.2 487.8 307 488 305.7 488 304.6H482.1ZM628.9 877.7L624.9 873.9C598.6 901.1 563.3 921.8 519 935.7 474.7 949.7 421.4 956.6 359.6 956.6 290.4 956.6 236 947.6 193.5 933 161.6 922 136.2 908.1 116 892.1 85.6 868.3 67.2 840.2 56 812.3 44.7 784.4 40.9 756.3 40.5 733L34.8 733.2 40.5 733.2C40.5 733 40.5 732.7 40.5 732.5 40.5 720.6 42.5 707.1 46.5 692.3 53.3 666.2 65.6 636.3 81.4 604.9 128.3 510.7 206.1 403.9 257.1 344.8L252.9 341.2V346.8H466.6V341.2L462.1 344.6C468.4 352.9 475.8 362.1 482.8 370.9 514.5 411.6 540.1 446.6 563 480.6 566.4 485.3 569.8 490.7 573.4 495.8 597.2 530.5 623.7 569.3 644.2 609.4 664.9 649.4 679.3 690.7 679.5 729.8L679.5 732.7V732.7C679.5 752.1 677 775.9 669.1 800.4 661.3 824.9 647.8 850.5 625.3 873.7L628.9 877.7 633 881.5C656.6 857 670.9 829.8 679.3 804 687.6 778.2 690 753.2 690 733L690 730.1C689.8 688 674.5 645.3 653.4 604.4 632.3 563.5 605.5 524.4 581.7 489.5 578.3 484.6 575 479.2 571.6 474.3 548.4 440.3 522.8 404.8 490.9 363.9 483.9 354.9 476.5 345.7 470.2 337.6L468.4 335.4H249.5L247.9 337.4C208.6 383 154 455.8 109.2 530.2 86.8 567.3 66.8 604.9 52.4 639.7 45.2 657 39.3 673.6 35.3 689.1 31.2 704.7 29 719.3 29 732.3 29 732.5 29 732.7 29 733L29 733 29 733C29.4 754.8 32.6 780.4 41.8 806.5 48.6 826 58.7 846 73.3 864.9 95.3 893.2 127.4 919.1 174 937.5 220.5 956.2 281 967.6 359.9 967.6 422.6 967.6 477 960.4 522.6 946.1 568.2 931.7 605.3 910.1 633.2 881.3L628.9 877.7Z",
        "width": 722
      },
      "search": [
        "resgate"
      ]
    }
  ]
}